{
    "type": "service_account",
    "project_id": "senninx-test",
    "private_key_id": "949e8d9d357c629370d9b831cc8ba242433b0abe",
    "private_key": "-----BEGIN PRIVATE KEY-----\nMIIEvgIBADANBgkqhkiG9w0BAQEFAASCBKgwggSkAgEAAoIBAQC54PSo06A9uJFl\n928a6bgwj9DHPq2w/z/oWS4C83HcsX5jxHLj13XtBOfuiatEA2j4oB1Rd1qCRAB4\nGCEx16v5si+jxkZkxRUaYRaxywrE0xsu/E43INs2kbT4Dj4hoQCmOhKJCEZFrW0p\ntor3OKONak/zM3zrIehWEBJvhsPkpjuCmLjKor8+zFDN62Vbyil7Z+BFVkq6Lv8w\nOSoAhQM2QjxnaYgK1IX/cvDyps3Uysbo48k8wG38ifbGpu9s3J70BrgFD9iqJtzz\nwCnMiIZhWTaCb5RnL2fSPY1/LHcD4D32lt/x7KQynlEvumCbQ48G31naJKfqnEKK\n4KfvC8ijAgMBAAECggEAB2EDIBHz94n0g7Fp62NB2POsnGxEOurhykMtYhfwpOE1\nnOz3M/ehX9JlCVbVF13HSgTD2oW8GxXAqwPSNYdT9Wqkciz0gxrry+CfellkHmIp\ntG4hsMCQ0z6/ihAOrrO/Mdog/ZL4LzCY98yeVv1xngiNZKCI91Cg8jcFyar2QIUO\nML7NstBKCp/sp820N0SlE6Jeg185A7ughxeyRlCHcYQccaQk6OUDHjjiknNqmP4s\nUfK/5yPEQedSN5wNCDK5JLKu/S8wRzZpO9JlVFFuswn8CZ2Oad/klU5kA92Y7LWg\nozxsyXO0g0IfzMWBx0PAR/9XvKZ+RJSMUpKi12KDQQKBgQDkNaScnmv/7GJUGNxH\njIJr3O+m0hw+XEeeCQHwd0nM6HFn/agG5kcHRDJ+b9pXoLxH48IecE/0qzwlTSVi\nJi02FcY4QaUgDzG2zSgZ0VCP6kFIsMWgumtjkcM1CJjP5lfyT2zN7n3QH/sEGFV8\nSGRsTW5fIuSNM1avCAwR3/OGYQKBgQDQg6noH/Kz4iUMP4kxuMK81lDqhvcZbOVJ\nmRLQYTw4TOAmqnG29oKJ7QIdoCfFTui+95QWISCZ0lAimDZ57sYbKFSJnb7fNCEG\nDMjSBLiZwqEF90rDz5GPCioeg5p+5+I6+LKcxHE56zdA/6ZfBCqWGtwpUxdG7CE+\nczjQPkIlgwKBgQCwQYIu+OifFDppi33uwOYmWtC5voPT4j/qHjjiOa/FVC3qzG3P\nTmHDifeZ0dgIX/urZoySJ9qJNQvSH4BlCulWYYDkCEd5uGKENnXnYtPfI2ViuC0b\nU4AHuhfTyR0FTXnVi2SUtMN1UI31/rlfsSXmw/MgBXoSWHl13Dg+QgL7YQKBgQCG\nVAvlSo+kaw/K8DOGIKzz0m2WaRRPAORFoaOJMtsEuiG9Rxiy8ePuzw0J4N8+MTOn\nsv9nsje6YM7XOo/9xWFCpZywezs3t/F+YEYPZpM2Gzh5C3LS6qmvKLExrz6ceu43\nZ3hJnhQDaBDUgt2/YIO+59blmG3qdryD6t6y6Sjb2QKBgH2AHwrF2DuD18irkQ6Z\nECbyHJs4e96/sF8DNmzj1dofXffkp3htr7zOSr8eL0CnYsz6gP1h9JAqFcCk3Ow9\nI8UdS4a57GSWewgZvfv/0aUQOCQSQ5yldPe02G/Nu2zm/NLSqTSoqKdLOFsziLpK\n1C1nL1fSxNZLRA/WmlTqY3ZH\n-----END PRIVATE KEY-----\n",
    "client_email": "senninx-test-appspot-gservicea@senninx-test.iam.gserviceaccount.com",
    "client_id": "101027270515139343922",
    "auth_uri": "https://accounts.google.com/o/oauth2/auth",
    "token_uri": "https://oauth2.googleapis.com/token",
    "auth_provider_x509_cert_url": "https://www.googleapis.com/oauth2/v1/certs",
    "client_x509_cert_url": "https://www.googleapis.com/robot/v1/metadata/x509/senninx-test-appspot-gservicea%40senninx-test.iam.gserviceaccount.com"
  }
  